module github.com/go-skynet/LocalAI

go 1.19

require (
	github.com/donomii/go-rwkv.cpp v0.0.0-20230515123100-6fdd0c338e56
	github.com/ggerganov/whisper.cpp/bindings/go v0.0.0-20230520182345-041be06d5881
	github.com/go-audio/wav v1.1.0
	github.com/go-skynet/bloomz.cpp v0.0.0-20230510223001-e9366e82abdf
	github.com/go-skynet/go-bert.cpp v0.0.0-20230516063724-cea1ed76a7f4
	github.com/go-skynet/go-gpt2.cpp v0.0.0-20230512145559-7bff56f02245
	github.com/go-skynet/go-llama.cpp v0.0.0-20230520155239-ccf23adfb278
	github.com/gofiber/fiber/v2 v2.46.0
	github.com/google/uuid v1.3.0
	github.com/hashicorp/go-multierror v1.1.1
	github.com/imdario/mergo v0.3.15
	github.com/mudler/go-stable-diffusion v0.0.0-20230516152536-c0748eca3642
	github.com/nomic-ai/gpt4all/gpt4all-bindings/golang v0.0.0-20230522155256-c8c95ab46f92
	github.com/onsi/ginkgo/v2 v2.9.5
	github.com/onsi/gomega v1.27.7
	github.com/otiai10/openaigo v1.1.0
	github.com/rs/zerolog v1.29.1
	github.com/sashabaranov/go-openai v1.9.4
	github.com/swaggo/swag v1.16.1
	github.com/urfave/cli/v2 v2.25.3
	github.com/valyala/fasthttp v1.47.0
	gopkg.in/yaml.v2 v2.4.0
	gopkg.in/yaml.v3 v3.0.1
)

require (
	github.com/KyleBanks/depth v1.2.1 // indirect
	github.com/PuerkitoBio/purell v1.1.1 // indirect
	github.com/PuerkitoBio/urlesc v0.0.0-20170810143723-de5bf2ad4578 // indirect
	github.com/andybalholm/brotli v1.0.5 // indirect
	github.com/cpuguy83/go-md2man/v2 v2.0.2 // indirect
	github.com/go-audio/audio v1.0.0 // indirect
	github.com/go-audio/riff v1.0.0 // indirect
	github.com/go-logr/logr v1.2.4 // indirect
	github.com/go-openapi/jsonpointer v0.19.5 // indirect
	github.com/go-openapi/jsonreference v0.19.6 // indirect
	github.com/go-openapi/spec v0.20.4 // indirect
	github.com/go-openapi/swag v0.19.15 // indirect
	github.com/go-task/slim-sprig v0.0.0-20230315185526-52ccab3ef572 // indirect
	github.com/google/go-cmp v0.5.9 // indirect
	github.com/google/pprof v0.0.0-20210407192527-94a9f03dee38 // indirect
	github.com/hashicorp/errwrap v1.0.0 // indirect
	github.com/josharian/intern v1.0.0 // indirect
	github.com/klauspost/compress v1.16.3 // indirect
	github.com/mailru/easyjson v0.7.6 // indirect
	github.com/mattn/go-colorable v0.1.13 // indirect
	github.com/mattn/go-isatty v0.0.18 // indirect
	github.com/mattn/go-runewidth v0.0.14 // indirect
	github.com/otiai10/mint v1.5.1 // indirect
	github.com/philhofer/fwd v1.1.2 // indirect
	github.com/rivo/uniseg v0.2.0 // indirect
	github.com/russross/blackfriday/v2 v2.1.0 // indirect
	github.com/savsgio/dictpool v0.0.0-20221023140959-7bf2e61cea94 // indirect
	github.com/savsgio/gotils v0.0.0-20230208104028-c358bd845dee // indirect
	github.com/tinylib/msgp v1.1.8 // indirect
	github.com/valyala/bytebufferpool v1.0.0 // indirect
	github.com/valyala/tcplisten v1.0.0 // indirect
	github.com/xrash/smetrics v0.0.0-20201216005158-039620a65673 // indirect
	golang.org/x/net v0.10.0 // indirect
	golang.org/x/sys v0.8.0 // indirect
	golang.org/x/text v0.9.0 // indirect
	golang.org/x/tools v0.9.1 // indirect
)
